<?xml version="1.0" encoding="UTF-8" standalone="no"?>
<!-- Created with Inkscape (http://www.inkscape.org/) -->

<svg
   id="svg4874"
   xmlns:dc="http://purl.org/dc/elements/1.1/"
   xmlns:cc="http://creativecommons.org/ns#"
   xmlns:rdf="http://www.w3.org/1999/02/22-rdf-syntax-ns#"
   xmlns:svg="http://www.w3.org/2000/svg"
   xmlns="http://www.w3.org/2000/svg"
   height="96"
   viewBox="0 0 96 96.000001"
   width="96"
   version="1.1">
  <defs
     id="defs9" />
  <metadata
     id="metadata4879">
    <rdf:RDF>
      <cc:Work
         rdf:about="">
        <dc:format>image/svg+xml</dc:format>
        <dc:type
           rdf:resource="http://purl.org/dc/dcmitype/StillImage" />
        <dc:title />
      </cc:Work>
    </rdf:RDF>
  </metadata>
  <rect
     id="rect4782"
     x="-2.7465819e-06"
     y="-96"
     width="96"
     height="96"
     transform="rotate(90)"
     style="color:#000000;fill:none" />
  <rect
     id="rect67"
     class="BoundingBox"
     x="-6.8729587"
     y="47.348457"
     width="80.000008"
     height="25.091276"
     style="fill:none;stroke:none;stroke-width:0.03030529"
     transform="rotate(-15.000008)" />
  <g
     id="g79"
     transform="matrix(0.02485496,-0.00665987,0.0092377,0.03447555,-10.350223,-1.86668)"
     class="com.sun.star.drawing.ClosedBezierShape">
    <g
       id="id6">
      <rect
         id="rect74"
         style="fill:none;stroke:none"
         class="BoundingBox"
         x="1055"
         y="1273"
         width="1300"
         height="395" />
      <path
         id="path76"
         style="fill:#808080;stroke:#808080;stroke-opacity:1"
         d="m 1208,1284 c -193,49 -206,284 -20,365 37,14 130,18 516,18 413,0 480,-4 526,-21 77,-36 124,-95 124,-172 0,-78 -30,-130 -97,-169 -50,-28 -53,-28 -526,-31 -263,0 -500,3 -523,10 z m 143,186 v 109 h -46 c -137,0 -197,-105 -107,-183 33,-28 57,-38 97,-38 h 56 z m 593,0 v 109 l -240,-4 -239,-3 -4,-109 -6,-105 246,3 h 243 z m 266,-81 c 94,71 27,193 -99,186 l -54,-3 -6,-88 c -4,-49 0,-98 3,-109 13,-28 110,-21 156,14 z" />
    </g>
  </g>
  <path
     id="path1552"
     style="fill:#ff0000;fill-opacity:1;fill-rule:evenodd;stroke:#ff0000;stroke-width:4;stroke-linecap:butt;stroke-linejoin:miter;stroke-miterlimit:4;stroke-dasharray:none;stroke-opacity:1"
     d="m 2.9191616,73.350209 v 0 L 93.5375,57.958455" />
  <path
     id="path69"
     d="M 9.0021713,55.444138 12.244604,67.545056 50.894066,57.188958 89.468964,46.85284 86.226532,34.751921 82.984099,22.651003 72.644436,25.421509 c -5.716641,1.53177 -10.327568,2.915068 -10.299855,3.018495 0.03695,0.137902 0.479492,0.79529 1.021453,1.426038 l 0.894984,1.053468 8.450686,-2.264356 8.425832,-2.257696 2.317999,8.949147 2.327237,8.983623 -35.803901,9.741434 -35.887704,9.726939 -2.429515,-9.06707 -2.4295151,-9.067069 8.3512661,-2.237717 8.450687,-2.264355 0.248344,-1.359822 c 0.08227,-0.687158 0.211394,-1.497723 0.183681,-1.60115 0.03476,-0.267968 -4.575508,0.819546 -10.267294,2.344656 L 5.7597386,43.343219 Z"
     style="fill:none;fill-rule:evenodd;stroke:#808080;stroke-width:4;stroke-linecap:butt;stroke-linejoin:miter;stroke-miterlimit:4;stroke-dasharray:none;stroke-opacity:1" />
</svg>
